…
group_by()

La función group_by es usada para agrupar datos según una variable, como vemos en este código:

ejemgroup <- group_by(disper, sitio)
ejemgroup

## # A tibble: 81 x 4
## # Groups:   sitio [9]
##    sitio disp_1 disp_2 disp_3
##    <chr>  <dbl>  <dbl>  <dbl>
##  1 P       32     26.7  10   
##  2 P       11.3   16.7  10   
##  3 P       40.7   40    33.3 
##  4 P       26     15    13.3 
##  5 P       29.3   18.3   0   
##  6 P       34     30     6.67
##  7 P       11.3   10    13.3 
##  8 P       20     30    23.3 
##  9 P       49.3   45    43.3 
## 10 BM      78     58.3  83.3 
## # ... with 71 more rows
…
